(i__main__
LogFile
p0
(dp1
S'_installed_files'
p2
(dp3
S'../../../CSCntuple/x86_64-slc6-gcc48-opt/libCSCntuple.so'
p4
S'../../InstallArea/x86_64-slc6-gcc48-opt/lib/libCSCntuple.so'
p5
sS'../../CSCntuple/genConf/CSCntuple'
p6
(dp7
S'../../../CSCntuple/genConf/CSCntuple/CSCntupleConf.py'
p8
S'../../InstallArea/python/CSCntuple/CSCntupleConf.py'
p9
sS'../../../CSCntuple/genConf/CSCntuple/CSCntuple_confDb.py'
p10
S'../../InstallArea/python/CSCntuple/CSCntuple_confDb.py'
p11
ssS'../../../CSCntuple/x86_64-slc6-gcc48-opt/libCSCntupleLib.so'
p12
S'../../InstallArea/x86_64-slc6-gcc48-opt/lib/libCSCntupleLib.so'
p13
sS'../../../CSCntuple/x86_64-slc6-gcc48-opt/libCSCntupleLib.so.debug'
p14
S'../../InstallArea/x86_64-slc6-gcc48-opt/lib/libCSCntupleLib.so.debug'
p15
sS'../../../CSCntuple/x86_64-slc6-gcc48-opt/libCSCntuple.so.debug'
p16
S'../../InstallArea/x86_64-slc6-gcc48-opt/lib/libCSCntuple.so.debug'
p17
ssb.